…
``` r
x <- amr %>% 
  dplyr::count(Resistance_Mechanism) 

amr %>% 
  dplyr::count(Drug_Class)
```

```
## # A tibble: 157 × 2
##    Drug_Class                                                                  n
##    <chr>                                                                   <int>
##  1 aminocoumarin antibiotic                                                 1380
##  2 aminoglycoside antibiotic                                               17596
##  3 aminoglycoside antibiotic; aminocoumarin antibiotic                       670
##  4 aminoglycoside antibiotic; cephalosporin; cephamycin; penam              1114
##  5 aminoglycoside antibiotic; polyamine antibiotic; isoniazid-like antibi…     1
##  6 aminoglycoside antibiotic; tetracycline antibiotic; diaminopyrimidine …   113
##  7 aminoglycoside antibiotic; tetracycline antibiotic; phenicol antibiotic    73
##  8 antibacterial free fatty acids                                            388
##  9 bicyclomycin-like antibiotic                                              159
## 10 carbapenem                                                              10073
## # ℹ 147 more rows
```

``` r
amr %>% 
  dplyr::count(AMR_Gene_Family)
```

```
## # A tibble: 438 × 2
##    AMR_Gene_Family                        n
##    <chr>                              <int>
##  1 16S rRNA methyltransferase (A1408)   186
##  2 16S rRNA methyltransferase (G1405)  1249
##  3 AAC(2')                              831
##  4 AAC(3)                              1918
##  5 AAC(6')                             3005
##  6 AAC(6'); AAC(6')-Ib-cr                90
##  7 AAK beta-lactamase                    52
##  8 ACC beta-lactamase                   350
##  9 ACI beta-lactamase                   137
## 10 ACT beta-lactamase                   828
## # ℹ 428 more rows
```
…
