…
# How many genes in the different categories?
summary_table <- sig.metab.genes.fate %>%
  filter(significant == TRUE) %>% 
  mutate(posneg = ifelse(Estimate > 0, "positive", "negative")) %>%
  dplyr::select(.id, Comparison, posneg, Level3) %>% #slect columns of interest
  distinct(.id, Comparison, posneg, Level3) %>% 
  group_by(Level3, posneg, Comparison) %>%
  summarize(UniqueGenes = n_distinct(.id), .groups = "drop") %>% 
  spread(posneg, UniqueGenes)

print(summary_table)
```

```
## # A tibble: 31 × 4
##    Level3                        Comparison                   negative positive
##    <chr>                         <fct>                           <int>    <int>
##  1 09101 Carbohydrate metabolism Unaffected_vs_Recovered            NA       19
##  2 09101 Carbohydrate metabolism Unaffected_vs_WillbeDiseased        7        1
##  3 09101 Carbohydrate metabolism Unaffected_vs_Diseased             23        7
##  4 09102 Energy metabolism       Unaffected_vs_Recovered             3        7
##  5 09102 Energy metabolism       Unaffected_vs_WillbeDiseased        6        1
##  6 09102 Energy metabolism       Unaffected_vs_Diseased             24        3
##  7 09103 Lipid metabolism        Unaffected_vs_Recovered            NA        1
##  8 09103 Lipid metabolism        Unaffected_vs_WillbeDiseased        1       NA
##  9 09103 Lipid metabolism        Unaffected_vs_Diseased              9       NA
## 10 09104 Nucleotide metabolism   Unaffected_vs_Recovered             1        5
## # ℹ 21 more rows
```
…
# How many genes in the different categories?
summary_table_nonmetab <- sig.nonmetab.genes.fate.KO %>%
  mutate(posneg = ifelse(Estimate > 0, "positive", "negative")) %>%
  dplyr::select(.id, Comparison, posneg, Level3) %>% #slect columns of interest
  distinct(.id, Comparison, posneg, Level3) %>% 
  group_by(Level3, posneg, Comparison) %>%
  summarize(UniqueGenes = n_distinct(.id), .groups = "drop") %>% # count unique genes
  spread(posneg, UniqueGenes)

print(summary_table_nonmetab)
```

```
## # A tibble: 60 × 4
##    Level3                                 Comparison           negative positive
##    <chr>                                  <fct>                   <int>    <int>
##  1 09121 Transcription                    Unaffected_vs_Recov…       NA        2
##  2 09121 Transcription                    Unaffected_vs_Willb…       NA        1
##  3 09121 Transcription                    Unaffected_vs_Disea…        1        2
##  4 09122 Translation                      Unaffected_vs_Recov…        1        3
##  5 09122 Translation                      Unaffected_vs_Willb…        7       NA
##  6 09122 Translation                      Unaffected_vs_Disea…       18       NA
##  7 09123 Folding, sorting and degradation Unaffected_vs_Recov…        2        4
##  8 09123 Folding, sorting and degradation Unaffected_vs_Willb…        3       NA
##  9 09123 Folding, sorting and degradation Unaffected_vs_Disea…       12        1
## 10 09124 Replication and repair           Unaffected_vs_Recov…        2        4
## # ℹ 50 more rows
```
…
